…
Introduction
------------

This is the data exploration on 2016 US presidential campaign finance contribution in New York state. The dataset is available at http://classic.fec.gov/disclosurep/pnational.do, which includes the financial information disclosed by each presidential candidates for their campaign and all the individual donations that were over $100,000.

In 2016 presidential campaign, the result unexpectedly brings Trump into White House, and Hilary missed the chance to be the first female president in the US. When people naturally assumed they would see a female president next morning, this reversal astonished Americans without clues. So, what if we have the financial campaign data? What can we get from the dataset? I will explore the nature of campaign contributions and see if there are any interesting relationships in the data, such as: - Which party and candidates got the most support? - What's the difference between different parties' supporters? - How are the donations distributed spatially? - Is there any model that we could build and bring some predictions?

Final Plots and Summary
-----------------------

### Plot One

    ## # A tibble: 4,665 x 7
    ## # Groups:   cand_nm, date [4,665]
    ##      cand_nm       date      party median_date average_date sum_date
    ##       <fctr>     <date>     <fctr>       <dbl>        <dbl>    <dbl>
    ##  1 Bush, Jeb 2015-06-15 republican        2700     2280.952    47900
    ##  2 Bush, Jeb 2015-06-16 republican         750     1233.333     7400
    ##  3 Bush, Jeb 2015-06-17 republican        2700     2665.000    53300
    ##  4 Bush, Jeb 2015-06-18 republican        2700     2705.000    54100
    ##  5 Bush, Jeb 2015-06-19 republican        2700     2562.162    94800
    ##  6 Bush, Jeb 2015-06-20 republican        2700     2700.000     2700
    ##  7 Bush, Jeb 2015-06-21 republican        1850     1850.000     3700
    ##  8 Bush, Jeb 2015-06-22 republican        2700     2607.353    88650
    ##  9 Bush, Jeb 2015-06-23 republican        2700     2558.333    76750
    ## 10 Bush, Jeb 2015-06-24 republican        2700     2675.000   117700
    ## # ... with 4,655 more rows, and 1 more variables: count_date <int>
…
